sim/ram/sim.vcd
$date
	Mon Feb 19 13:07:44 2024
$end
$version
	Icarus Verilog
$end
$timescale
	10ps
$end
$scope module sim_tb $end
$var wire 16 ! rdata [15:0] $end
$var reg 1 " fpga_clk $end
$var reg 8 # raddr [7:0] $end
$var reg 8 $ waddr [7:0] $end
$var reg 16 % wdata [15:0] $end
$var reg 1 & we $end
$scope module ebr_I $end
$var wire 16 ' MASK [15:0] $end
$var wire 8 ( RADDR [7:0] $end
$var wire 1 " RCLK $end
$var wire 1 ) RCLKE $end
$var wire 1 * RE $end
$var wire 8 + WADDR [7:0] $end
$var wire 1 " WCLK $end
$var wire 1 , WCLKE $end
$var wire 16 - WDATA [15:0] $end
$var wire 1 & WE $end
$var wire 16 . RDATA [15:0] $end
$scope module raminst $end
$var wire 8 / r_addr [7:0] $end
$var wire 1 " r_clk $end
$var wire 1 * r_en $end
$var wire 8 0 w_addr [7:0] $end
$var wire 1 " w_clk $end
$var wire 16 1 w_data [15:0] $end
$var wire 1 & w_en $end
$var reg 16 2 r_data [15:0] $end
$upscope $end
$upscope $end
$upscope $end
$enddefinitions $end
#0
$dumpvars
bx 2
bx 1
bx 0
b1 /
bx .
bx -
z,
bx +
1*
z)
b1 (
bz '
0&
bx %
bx $
b1 #
0"
bx !
$end
#1042
b1 !
b1 .
b1 2
1"
#2084
0"
#3126
1"
#4168
0"
#5210
1"
#6252
0"
#7294
1"
#8336
0"
#9378
1"
#10420
0"
#11458
1&
b1100101011111110 %
b1100101011111110 -
b1100101011111110 1
b1 $
b1 +
b1 0
#11462
1"
#11558
0&
#12504
0"
#13546
b1100101011111110 !
b1100101011111110 .
b1100101011111110 2
1"
#13641
b10 #
b10 (
b10 /
#14588
0"
#15630
b10 !
b10 .
b10 2
1"
#15724
b1 #
b1 (
b1 /
#16672
0"
#17714
b1100101011111110 !
b1100101011111110 .
b1100101011111110 2
1"
#18756
0"
#18849
b11111111 #
b11111111 (
b11111111 /
#19798
b11111111 !
b11111111 .
b11111111 2
1"
